<svg xmlns="http://www.w3.org/2000/svg" id="_008-steering-wheel" width="17.963" height="17.963" data-name="008-steering-wheel" viewBox="0 0 17.963 17.963">
    <defs>
        <style>
            .cls-1{fill:#fff}
        </style>
    </defs>
    <g id="Group_39" data-name="Group 39" transform="translate(2.366 9.132)">
        <g id="Group_38" data-name="Group 38">
            <path id="Path_83" d="M70.45 261.3h-2.134a5.868 5.868 0 0 1-.1-.664.39.39 0 1 0-.778.067 6.645 6.645 0 0 0 .185 1.085 6.633 6.633 0 0 0 4.77 4.769.391.391 0 0 0 .488-.378v-2.445a2.437 2.437 0 0 0-2.431-2.434zm1.653 4.353a5.852 5.852 0 0 1-3.572-3.572h1.919a1.655 1.655 0 0 1 1.653 1.653z" class="cls-1" data-name="Path 83" transform="translate(-67.441 -260.283)"/>
        </g>
    </g>
    <g id="Group_41" data-name="Group 41">
        <g id="Group_40" data-name="Group 40">
            <path id="Path_84" d="M15.332 2.631a8.981 8.981 0 0 0-12.7 12.7 8.981 8.981 0 0 0 12.7-12.7zM8.981 17.182a8.2 8.2 0 1 1 8.2-8.2 8.21 8.21 0 0 1-8.2 8.2z" class="cls-1" data-name="Path 84"/>
        </g>
    </g>
    <g id="Group_43" data-name="Group 43" transform="translate(10.153 10.153)">
        <g id="Group_42" data-name="Group 42">
            <path id="Path_85" d="M294.579 289.542a.39.39 0 0 0-.309-.151h-2.446a2.437 2.437 0 0 0-2.434 2.434v2.445a.39.39 0 0 0 .488.378 6.633 6.633 0 0 0 4.77-4.77.39.39 0 0 0-.069-.336zm-4.407 4.2v-1.919a1.655 1.655 0 0 1 1.653-1.653h1.919a5.852 5.852 0 0 1-3.572 3.574z" class="cls-1" data-name="Path 85" transform="translate(-289.391 -289.391)"/>
        </g>
    </g>
    <g id="Group_45" data-name="Group 45" transform="translate(7.419 7.419)">
        <g id="Group_44" data-name="Group 44">
            <path id="Path_86" d="M213.04 211.478a1.562 1.562 0 1 0 1.562 1.562 1.564 1.564 0 0 0-1.562-1.562zm0 2.343a.781.781 0 1 1 .781-.781.782.782 0 0 1-.781.781z" class="cls-1" data-name="Path 86" transform="translate(-211.478 -211.478)"/>
        </g>
    </g>
    <g id="Group_47" data-name="Group 47" transform="translate(2.387 7.81)">
        <g id="Group_46" data-name="Group 46">
            <path id="Path_87" d="M68.479 222.609a.39.39 0 0 0-.436.339v.038a.391.391 0 0 0 .342.434h.046a.391.391 0 0 0 .387-.345v-.033a.391.391 0 0 0-.339-.433z" class="cls-1" data-name="Path 87" transform="translate(-68.036 -222.606)"/>
        </g>
    </g>
    <g id="Group_49" data-name="Group 49" transform="translate(2.628 2.343)">
        <g id="Group_48" data-name="Group 48">
            <path id="Path_88" d="M87.587 71.435a6.7 6.7 0 0 0-2.369-3.335 6.64 6.64 0 0 0-7.934 0 6.7 6.7 0 0 0-2.369 3.337.39.39 0 0 0 .429.5 42.68 42.68 0 0 1 5.907-.469 42.183 42.183 0 0 1 5.658.434 5.868 5.868 0 0 1 .2 1.519.39.39 0 1 0 .781 0 6.634 6.634 0 0 0-.303-1.986zm-6.336-.747a42.169 42.169 0 0 0-5.37.387 5.861 5.861 0 0 1 10.739 0 42.169 42.169 0 0 0-5.369-.387z" class="cls-1" data-name="Path 88" transform="translate(-74.897 -66.783)"/>
        </g>
    </g>
</svg>
