<svg xmlns="http://www.w3.org/2000/svg" width="17.88" height="17.88" viewBox="0 0 17.88 17.88">
    <defs>
        <style>
            .cls-1{fill:#fff}
        </style>
    </defs>
    <path id="_007-user" d="M18.781 22.18a.559.559 0 0 1-.558-.558v-2.283H15.94a.558.558 0 1 1 0-1.115h2.284V15.94a.558.558 0 1 1 1.115 0v2.284h2.284a.558.558 0 0 1 0 1.115h-2.284v2.284a.556.556 0 0 1-.558.557zm-12.5 0A1.981 1.981 0 0 1 4.3 20.2v-1.312A4.1 4.1 0 0 1 5.692 15.8a9.679 9.679 0 0 1 4.38-2.089l.316-.071-.256-.2a5.1 5.1 0 1 1 3.108 1.062c-3.957 0-6.081 1.492-6.813 2.135a2.983 2.983 0 0 0-1.012 2.241V20.2a.864.864 0 0 0 .863.863h9.662a.558.558 0 0 1 0 1.115H6.278zM13.24 5.415A3.989 3.989 0 1 0 17.229 9.4a3.994 3.994 0 0 0-3.989-3.985z" class="cls-1" data-name="007-user" transform="translate(-4.3 -4.3)"/>
</svg>
