<svg xmlns="http://www.w3.org/2000/svg" id="_003-package" width="17.744" height="19.274" data-name="003-package" viewBox="0 0 17.744 19.274">
    <defs>
        <style>
            .cls-1{fill:#fff}
        </style>
    </defs>
    <path id="Path_82" d="M36.536 4.544a.505.505 0 0 0-.049-.216.471.471 0 0 0-.33-.26L27.872.049a.492.492 0 0 0-.427 0L19.077 4.1a.49.49 0 0 0-.277.423v10.2a.485.485 0 0 0 .277.439l8.368 4.056h.008a.144.144 0 0 1 .037.016h.016l.037.012h.012c.004 0 .028 0 .041.008h.065a.232.232 0 0 0 .053 0h.012a.144.144 0 0 0 .041-.008h.012l.037-.012h.016a.145.145 0 0 0 .037-.016h.008l8.392-4.068a.492.492 0 0 0 .277-.439V4.556c-.01-.004-.01-.008-.01-.012zm-8.88-3.515l7.257 3.519-2.673 1.3-7.257-3.521zm0 7.038L20.4 4.548l3.466-1.68 7.257 3.519zm-7.88-2.734l7.391 3.584V18l-7.391-3.584zM28.144 18V8.917l3.47-1.684v2.376a.488.488 0 0 0 .976 0V6.757l2.97-1.44V14.4z" class="cls-1" data-name="Path 82" transform="translate(-18.8)"/>
</svg>
